<svg width="56" height="56" viewBox="0 0 56 56" fill="none" xmlns="http://www.w3.org/2000/svg">
<path d="M50.75 14L26.25 42L15.75 31.5" stroke="#729F70" stroke-width="4" stroke-linecap="round" stroke-linejoin="round"/>
<path d="M15.75 42L5.25 31.5" stroke="#729F70" stroke-width="4" stroke-linecap="round" stroke-linejoin="round"/>
<path d="M40.25 14L25.375 31.0625" stroke="#729F70" stroke-width="4" stroke-linecap="round" stroke-linejoin="round"/>
</svg>
